<?xml version="1.0" encoding="UTF-8" standalone="no"?>
<!-- Created with Inkscape (http://www.inkscape.org/) -->

<svg
   xmlns:dc="http://purl.org/dc/elements/1.1/"
   xmlns:cc="http://creativecommons.org/ns#"
   xmlns:rdf="http://www.w3.org/1999/02/22-rdf-syntax-ns#"
   xmlns:svg="http://www.w3.org/2000/svg"
   xmlns="http://www.w3.org/2000/svg"
   xmlns:sodipodi="http://sodipodi.sourceforge.net/DTD/sodipodi-0.dtd"
   xmlns:inkscape="http://www.inkscape.org/namespaces/inkscape"
   width="499.32687"
   height="97.777664"
   viewBox="0 0 132.11357 25.870341"
   version="1.1"
   id="svg821"
   inkscape:version="0.92.3 (2405546, 2018-03-11)"
   sodipodi:docname="madeByKDE.svg"
   inkscape:export-filename="opaque-source3.svg.png"
   inkscape:export-xdpi="2109.3752"
   inkscape:export-ydpi="2109.3752">
  <defs
     id="defs815" />
  <sodipodi:namedview
     id="base"
     pagecolor="#ffffff"
     bordercolor="#666666"
     borderopacity="1.0"
     inkscape:pageopacity="0.0"
     inkscape:pageshadow="2"
     inkscape:zoom="1.979899"
     inkscape:cx="164.53297"
     inkscape:cy="27.338771"
     inkscape:document-units="mm"
     inkscape:current-layer="layer1"
     showgrid="true"
     units="px"
     inkscape:window-width="1920"
     inkscape:window-height="1007"
     inkscape:window-x="0"
     inkscape:window-y="0"
     inkscape:window-maximized="1"
     width="128px"
     fit-margin-top="0"
     fit-margin-left="0"
     fit-margin-right="0"
     fit-margin-bottom="0">
    <inkscape:grid
       type="xygrid"
       id="grid1391"
       originx="-4.5421376"
       originy="-3.6529968" />
  </sodipodi:namedview>
  <metadata
     id="metadata818">
    <rdf:RDF>
      <cc:Work
         rdf:about="">
        <dc:format>image/svg+xml</dc:format>
        <dc:type
           rdf:resource="http://purl.org/dc/dcmitype/StillImage" />
        <dc:title />
        <cc:license
           rdf:resource="http://creativecommons.org/licenses/by/4.0/" />
      </cc:Work>
      <cc:License
         rdf:about="http://creativecommons.org/licenses/by/4.0/">
        <cc:permits
           rdf:resource="http://creativecommons.org/ns#Reproduction" />
        <cc:permits
           rdf:resource="http://creativecommons.org/ns#Distribution" />
        <cc:requires
           rdf:resource="http://creativecommons.org/ns#Notice" />
        <cc:requires
           rdf:resource="http://creativecommons.org/ns#Attribution" />
        <cc:permits
           rdf:resource="http://creativecommons.org/ns#DerivativeWorks" />
      </cc:License>
    </rdf:RDF>
  </metadata>
  <g
     inkscape:label="Layer 1"
     inkscape:groupmode="layer"
     id="layer1"
     transform="translate(-4.5421376,-267.47665)"
     style="display:inline">
    <g
       id="g4600"
       style="fill:#fffff3;fill-opacity:1">
      <path
         inkscape:connector-curvature="0"
         id="path5692_2_-3"
         d="m 18.806101,267.47665 -4.302422,0.41187 v 17.71562 l 4.256854,-0.64088 v -7.55327 l 5.722055,8.37759 4.485866,-1.41934 -5.859345,-8.05686 5.905209,-7.59912 -4.577292,-1.05245 -5.676493,7.59883 z m -9.7525429,4.31712 c -0.048583,0.005 -0.095505,0.0265 -0.1319936,0.0632 l -1.688633,1.68834 c -0.070997,0.0712 -0.084372,0.1816 -0.032029,0.26781 l 1.9770256,3.25614 c -0.350646,0.5895 -0.6316886,1.22509 -0.8325519,1.89559 l -3.6294999,0.75494 c -0.1009835,0.0209 -0.1737387,0.1104 -0.1737387,0.21402 v 2.38772 c 0,0.10099 0.069086,0.18844 0.1663886,0.21196 l 3.5227821,0.86107 c 0.1878585,0.77656 0.4789704,1.51269 0.8637213,2.18928 l -2.0390572,3.10945 c -0.056889,0.0869 -0.044999,0.20137 0.028501,0.27458 l 1.6880414,1.68833 c 0.070997,0.0709 0.181834,0.0847 0.2684075,0.0326 l 3.1952837,-1.94057 c 0.62765,0.36219 1.304542,0.6472 2.019949,0.84049 l 0.745534,3.58452 c 0.02099,0.10157 0.110763,0.17375 0.213726,0.17375 h 2.388014 c 0.100392,0 0.188001,-0.0685 0.211962,-0.16699 l 0.87812,-3.59186 c 0.737451,-0.19903 1.434926,-0.49566 2.077861,-0.8743 l 3.148835,2.06463 c 0.08658,0.057 0.201085,0.0456 0.27458,-0.0279 l 1.688633,-1.68834 c 0.07144,-0.0714 0.08422,-0.18183 0.03174,-0.26782 L 24.765691,286.9 l -0.371888,0.11759 c -0.05421,0.0171 -0.113329,-0.003 -0.145226,-0.0503 0,0 -0.73319,-1.07333 -1.680106,-2.45916 -1.131975,2.21545 -3.435025,3.73298 -6.09453,3.73298 -3.778469,0 -6.8418333,-3.06343 -6.8418333,-6.84212 0,-2.77974 1.6579863,-5.17033 4.0381323,-6.24123 v -1.76506 c -0.43318,0.15154 -0.851956,0.33425 -1.249718,0.55092 -3.01e-4,-3.1e-4 -5.69e-4,-0.001 -0.0017,-0.002 L 9.195901,271.8279 c -0.043406,-0.0284 -0.093713,-0.0397 -0.1422848,-0.0347 z"
         style="fill:#fffff3;fill-opacity:1;stroke-width:0.26458332" />
      <g
         aria-label="Made by KDE"
         transform="matrix(0.26458333,0,0,0.26458333,0,273.82461)"
         style="font-style:normal;font-weight:normal;font-size:40px;line-height:125%;font-family:sans-serif;letter-spacing:0px;word-spacing:0px;fill:#fffff3;fill-opacity:1;stroke:none;stroke-width:1px;stroke-linecap:butt;stroke-linejoin:miter;stroke-opacity:1"
         id="flowRoot4519">
        <path
           d="M 151.368,46.232012 136.328,6.1680117 h -0.256 q 0.192,1.984 0.32,5.3760003 0.128,3.328 0.128,6.976 v 27.712 h -5.312 V 0.53601175 h 8.512 L 153.8,37.976012 h 0.256 L 168.392,0.53601175 h 8.448 V 46.232012 h -5.696 v -28.096 q 0,-3.328 0.128,-6.592 0.192,-3.2640003 0.32,-5.3120003 h -0.256 L 156.104,46.232012 Z"
           style="font-style:normal;font-variant:normal;font-weight:normal;font-stretch:normal;font-size:64px;font-family:'Noto Sans';-inkscape-font-specification:'Noto Sans, Normal';font-variant-ligatures:normal;font-variant-caps:normal;font-variant-numeric:normal;font-feature-settings:normal;text-align:start;writing-mode:lr-tb;text-anchor:start;fill:#fffff3;fill-opacity:1"
           id="path4621" />
        <path
           d="m 201.432,11.352012 q 6.272,0 9.28,2.752 3.008,2.752 3.008,8.768 v 23.36 h -4.096 l -1.088,-4.864 h -0.256 q -2.24,2.816 -4.736,4.16 -2.496,1.344 -6.784,1.344 -4.672,0 -7.744,-2.432 -3.072,-2.496 -3.072,-7.744 0,-5.12 4.032,-7.872 4.032,-2.816 12.416,-3.072 l 5.824,-0.192 v -2.048 q 0,-4.288 -1.856,-5.952 -1.856,-1.664 -5.248,-1.664 -2.688,0 -5.12,0.832 -2.432,0.768 -4.544,1.792 l -1.728,-4.224 q 2.24,-1.216 5.312,-2.048 3.072,-0.896 6.4,-0.896 z m 6.72,18.112 -5.056,0.192 q -6.4,0.256 -8.896,2.048 -2.432,1.792 -2.432,5.056 0,2.88 1.728,4.224 1.792,1.344 4.544,1.344 4.288,0 7.168,-2.368 2.944,-2.432 2.944,-7.424 z"
           style="font-style:normal;font-variant:normal;font-weight:normal;font-stretch:normal;font-size:64px;font-family:'Noto Sans';-inkscape-font-specification:'Noto Sans, Normal';font-variant-ligatures:normal;font-variant-caps:normal;font-variant-numeric:normal;font-feature-settings:normal;text-align:start;writing-mode:lr-tb;text-anchor:start;fill:#fffff3;fill-opacity:1"
           id="path4623" />
        <path
           d="m 236.475,46.872012 q -6.4,0 -10.24,-4.416 -3.84,-4.48 -3.84,-13.312 0,-8.832 3.84,-13.312 3.904,-4.544 10.304,-4.544 3.968,0 6.464,1.472 2.56,1.472 4.16,3.584 h 0.384 q -0.128,-0.832 -0.256,-2.432 -0.128,-1.664 -0.128,-2.624 V -2.4079883 h 5.632 V 46.232012 h -4.544 l -0.832,-4.608 h -0.256 q -1.536,2.176 -4.096,3.712 -2.56,1.536 -6.592,1.536 z m 0.896,-4.672 q 5.44,0 7.616,-2.944 2.24,-3.008 2.24,-9.024 v -1.024 q 0,-6.4 -2.112,-9.792 -2.112,-3.456 -7.808,-3.456 -4.544,0 -6.848,3.648 -2.24,3.584 -2.24,9.664 0,6.144 2.24,9.536 2.304,3.392 6.912,3.392 z"
           style="font-style:normal;font-variant:normal;font-weight:normal;font-stretch:normal;font-size:64px;font-family:'Noto Sans';-inkscape-font-specification:'Noto Sans, Normal';font-variant-ligatures:normal;font-variant-caps:normal;font-variant-numeric:normal;font-feature-settings:normal;text-align:start;writing-mode:lr-tb;text-anchor:start;fill:#fffff3;fill-opacity:1"
           id="path4625" />
        <path
           d="m 276.938,11.288012 q 4.352,0 7.552,1.92 3.2,1.92 4.864,5.44 1.728,3.456 1.728,8.128 v 3.392 h -23.488 q 0.128,5.824 2.944,8.896 2.88,3.008 8,3.008 3.264,0 5.76,-0.576 2.56,-0.64 5.248,-1.792 v 4.928 q -2.624,1.152 -5.184,1.664 -2.56,0.576 -6.08,0.576 -4.928,0 -8.64,-1.984 -3.712,-1.984 -5.824,-5.888 -2.048,-3.904 -2.048,-9.664 0,-5.632 1.856,-9.664 1.92,-4.032 5.312,-6.208 3.456,-2.176 8,-2.176 z m -0.064,4.608 q -4.032,0 -6.4,2.624 -2.304,2.56 -2.752,7.168 h 17.472 q -0.064,-4.352 -2.048,-7.04 -1.984,-2.752 -6.272,-2.752 z"
           style="font-style:normal;font-variant:normal;font-weight:normal;font-stretch:normal;font-size:64px;font-family:'Noto Sans';-inkscape-font-specification:'Noto Sans, Normal';font-variant-ligatures:normal;font-variant-caps:normal;font-variant-numeric:normal;font-feature-settings:normal;text-align:start;writing-mode:lr-tb;text-anchor:start;fill:#fffff3;fill-opacity:1"
           id="path4627" />
        <path
           d="m 322.072,-2.4079883 v 11.84 q 0,2.1760003 -0.128,4.0960003 -0.064,1.856 -0.192,2.944 h 0.32 q 1.472,-2.176 4.032,-3.648 2.56,-1.472 6.592,-1.472 6.4,0 10.24,4.48 3.904,4.416 3.904,13.248 0,8.832 -3.904,13.312 -3.904,4.48 -10.24,4.48 -4.032,0 -6.592,-1.472 -2.56,-1.472 -4.032,-3.52 h -0.448 l -1.152,4.352 H 316.44 V -2.4079883 Z m 9.664,18.4320003 q -5.504,0 -7.616,3.136 -2.048,3.136 -2.048,9.728 v 0.256 q 0,6.336 2.048,9.728 2.112,3.328 7.744,3.328 4.608,0 6.848,-3.392 2.304,-3.392 2.304,-9.792 0,-12.992 -9.28,-12.992 z"
           style="font-style:normal;font-variant:normal;font-weight:normal;font-stretch:normal;font-size:64px;font-family:'Noto Sans';-inkscape-font-specification:'Noto Sans, Normal';font-variant-ligatures:normal;font-variant-caps:normal;font-variant-numeric:normal;font-feature-settings:normal;text-align:start;writing-mode:lr-tb;text-anchor:start;fill:#fffff3;fill-opacity:1"
           id="path4629" />
        <path
           d="m 349.189,11.928012 h 6.016 l 7.424,19.52 q 0.96,2.624 1.728,4.928 0.768,2.304 1.152,4.416 h 0.256 q 0.384,-1.6 1.216,-4.16 0.832,-2.624 1.728,-5.248 l 6.976,-19.456 h 6.08 l -14.784,39.04 q -1.856,4.864 -4.672,7.744 -2.816,2.88 -7.808,2.88 -1.536,0 -2.688,-0.192 -1.152,-0.128 -1.984,-0.32 v -4.48 q 0.704,0.128 1.664,0.256 1.024,0.128 2.112,0.128 2.944,0 4.736,-1.664 1.792,-1.664 2.88,-4.416 l 1.792,-4.544 z"
           style="font-style:normal;font-variant:normal;font-weight:normal;font-stretch:normal;font-size:64px;font-family:'Noto Sans';-inkscape-font-specification:'Noto Sans, Normal';font-variant-ligatures:normal;font-variant-caps:normal;font-variant-numeric:normal;font-feature-settings:normal;text-align:start;writing-mode:lr-tb;text-anchor:start;fill:#fffff3;fill-opacity:1"
           id="path4631" />
        <path
           d="m 437.991,46.232012 h -6.784 l -16.192,-21.824 -4.672,4.096 v 17.728 h -5.76 V 0.53601175 h 5.76 V 23.064012 q 1.92,-2.176 3.904,-4.352 1.984,-2.176 3.968,-4.352 L 430.567,0.53601175 h 6.72 L 419.175,20.440012 Z"
           style="font-style:normal;font-variant:normal;font-weight:normal;font-stretch:normal;font-size:64px;font-family:'Noto Sans';-inkscape-font-specification:'Noto Sans, Normal';font-variant-ligatures:normal;font-variant-caps:normal;font-variant-numeric:normal;font-feature-settings:normal;text-align:start;writing-mode:lr-tb;text-anchor:start;fill:#fffff3;fill-opacity:1"
           id="path4633" />
        <path
           d="m 480.816,22.936012 q 0,11.584 -6.336,17.472 -6.272,5.824 -17.536,5.824 H 444.208 V 0.53601175 h 14.08 q 6.848,0 11.904,2.55999995 5.12,2.56 7.872,7.5520003 2.752,4.992 2.752,12.288 z m -6.08,0.192 q 0,-9.152 -4.544,-13.3760003 -4.48,-4.288 -12.736,-4.288 h -7.488 V 41.304012 h 6.208 q 18.56,0 18.56,-18.176 z"
           style="font-style:normal;font-variant:normal;font-weight:normal;font-stretch:normal;font-size:64px;font-family:'Noto Sans';-inkscape-font-specification:'Noto Sans, Normal';font-variant-ligatures:normal;font-variant-caps:normal;font-variant-numeric:normal;font-feature-settings:normal;text-align:start;writing-mode:lr-tb;text-anchor:start;fill:#fffff3;fill-opacity:1"
           id="path4635" />
        <path
           d="M 516.494,46.232012 H 490.958 V 0.53601175 h 25.536 V 5.5920117 H 496.718 V 19.864012 h 18.624 v 4.992 h -18.624 v 16.32 h 19.776 z"
           style="font-style:normal;font-variant:normal;font-weight:normal;font-stretch:normal;font-size:64px;font-family:'Noto Sans';-inkscape-font-specification:'Noto Sans, Normal';font-variant-ligatures:normal;font-variant-caps:normal;font-variant-numeric:normal;font-feature-settings:normal;text-align:start;writing-mode:lr-tb;text-anchor:start;fill:#fffff3;fill-opacity:1"
           id="path4637" />
      </g>
    </g>
  </g>
</svg>
